%YAML 1.1
%TAG !u! tag:unity3d.com,2011:
--- !u!29 &1
OcclusionCullingSettings:
  m_ObjectHideFlags: 0
  serializedVersion: 2
  m_OcclusionBakeSettings:
    smallestOccluder: 5
    smallestHole: 0.25
    backfaceThreshold: 100
  m_SceneGUID: 00000000000000000000000000000000
  m_OcclusionCullingData: {fileID: 0}
--- !u!104 &2
RenderSettings:
  m_ObjectHideFlags: 0
  serializedVersion: 9
  m_Fog: 0
  m_FogColor: {r: 0.5, g: 0.5, b: 0.5, a: 1}
  m_FogMode: 3
  m_FogDensity: 0.01
  m_LinearFogStart: 0
  m_LinearFogEnd: 300
  m_AmbientSkyColor: {r: 0.212, g: 0.227, b: 0.259, a: 1}
  m_AmbientEquatorColor: {r: 0.114, g: 0.125, b: 0.133, a: 1}
  m_AmbientGroundColor: {r: 0.047, g: 0.043, b: 0.035, a: 1}
  m_AmbientIntensity: 1
  m_AmbientMode: 0
  m_SubtractiveShadowColor: {r: 0.42, g: 0.478, b: 0.627, a: 1}
  m_SkyboxMaterial: {fileID: 2100000, guid: 0d5771081eb9abb43b1792b52260d914, type: 2}
  m_HaloStrength: 0.5
  m_FlareStrength: 1
  m_FlareFadeSpeed: 3
  m_HaloTexture: {fileID: 0}
  m_SpotCookie: {fileID: 10001, guid: 0000000000000000e000000000000000, type: 0}
  m_DefaultReflectionMode: 0
  m_DefaultReflectionResolution: 128
  m_ReflectionBounces: 1
  m_ReflectionIntensity: 1
  m_CustomReflection: {fileID: 0}
  m_Sun: {fileID: 0}
  m_IndirectSpecularColor: {r: 0, g: 0, b: 0, a: 1}
  m_UseRadianceAmbientProbe: 0
--- !u!157 &3
LightmapSettings:
  m_ObjectHideFlags: 0
  serializedVersion: 11
  m_GIWorkflowMode: 1
  m_GISettings:
    serializedVersion: 2
    m_BounceScale: 1
    m_IndirectOutputScale: 1
    m_AlbedoBoost: 1
    m_EnvironmentLightingMode: 0
    m_EnableBakedLightmaps: 1
    m_EnableRealtimeLightmaps: 0
  m_LightmapEditorSettings:
    serializedVersion: 12
    m_Resolution: 2
    m_BakeResolution: 40
    m_AtlasSize: 1024
    m_AO: 0
    m_AOMaxDistance: 1
    m_CompAOExponent: 1
    m_CompAOExponentDirect: 0
    m_ExtractAmbientOcclusion: 0
    m_Padding: 2
    m_LightmapParameters: {fileID: 0}
    m_LightmapsBakeMode: 1
    m_TextureCompression: 1
    m_FinalGather: 0
    m_FinalGatherFiltering: 1
    m_FinalGatherRayCount: 256
    m_ReflectionCompression: 2
    m_MixedBakeMode: 2
    m_BakeBackend: 1
    m_PVRSampling: 1
    m_PVRDirectSampleCount: 32
    m_PVRSampleCount: 512
    m_PVRBounces: 2
    m_PVREnvironmentSampleCount: 256
    m_PVREnvironmentReferencePointCount: 2048
    m_PVRFilteringMode: 1
    m_PVRDenoiserTypeDirect: 1
    m_PVRDenoiserTypeIndirect: 1
    m_PVRDenoiserTypeAO: 1
    m_PVRFilterTypeDirect: 0
    m_PVRFilterTypeIndirect: 0
    m_PVRFilterTypeAO: 0
    m_PVREnvironmentMIS: 1
    m_PVRCulling: 1
    m_PVRFilteringGaussRadiusDirect: 1
    m_PVRFilteringGaussRadiusIndirect: 5
    m_PVRFilteringGaussRadiusAO: 2
    m_PVRFilteringAtrousPositionSigmaDirect: 0.5
    m_PVRFilteringAtrousPositionSigmaIndirect: 2
    m_PVRFilteringAtrousPositionSigmaAO: 1
    m_ExportTrainingData: 0
    m_TrainingDataDestination: TrainingData
    m_LightProbeSampleCountMultiplier: 4
  m_LightingDataAsset: {fileID: 0}
  m_UseShadowmask: 1
--- !u!196 &4
NavMeshSettings:
  serializedVersion: 2
  m_ObjectHideFlags: 0
  m_BuildSettings:
    serializedVersion: 2
    agentTypeID: 0
    agentRadius: 0.5
    agentHeight: 2
    agentSlope: 45
    agentClimb: 0.4
    ledgeDropHeight: 0
    maxJumpAcrossDistance: 0
    minRegionArea: 2
    manualCellSize: 0
    cellSize: 0.16666667
    manualTileSize: 0
    tileSize: 256
    accuratePlacement: 0
    debug:
      m_Flags: 0
  m_NavMeshData: {fileID: 0}
--- !u!1 &106741665
GameObject:
  m_ObjectHideFlags: 0
  m_CorrespondingSourceObject: {fileID: 0}
  m_PrefabInstance: {fileID: 0}
  m_PrefabAsset: {fileID: 0}
  serializedVersion: 6
  m_Component:
  - component: {fileID: 106741669}
  - component: {fileID: 106741668}
  - component: {fileID: 106741667}
  - component: {fileID: 106741666}
  m_Layer: 0
  m_Name: Plane
  m_TagString: Untagged
  m_Icon: {fileID: 0}
  m_NavMeshLayer: 0
  m_StaticEditorFlags: 0
  m_IsActive: 1
--- !u!64 &106741666
MeshCollider:
  m_ObjectHideFlags: 0
  m_CorrespondingSourceObject: {fileID: 0}
  m_PrefabInstance: {fileID: 0}
  m_PrefabAsset: {fileID: 0}
  m_GameObject: {fileID: 106741665}
  m_Material: {fileID: 0}
  m_IsTrigger: 0
  m_Enabled: 1
  serializedVersion: 4
  m_Convex: 0
  m_CookingOptions: 30
  m_Mesh: {fileID: 10209, guid: 0000000000000000e000000000000000, type: 0}
--- !u!23 &106741667
MeshRenderer:
  m_ObjectHideFlags: 0
  m_CorrespondingSourceObject: {fileID: 0}
  m_PrefabInstance: {fileID: 0}
  m_PrefabAsset: {fileID: 0}
  m_GameObject: {fileID: 106741665}
  m_Enabled: 1
  m_CastShadows: 1
  m_ReceiveShadows: 1
  m_DynamicOccludee: 1
  m_MotionVectors: 1
  m_LightProbeUsage: 1
  m_ReflectionProbeUsage: 1
  m_RayTracingMode: 2
  m_RenderingLayerMask: 1
  m_RendererPriority: 0
  m_Materials:
  - {fileID: 10303, guid: 0000000000000000f000000000000000, type: 0}
  m_StaticBatchInfo:
    firstSubMesh: 0
    subMeshCount: 0
  m_StaticBatchRoot: {fileID: 0}
  m_ProbeAnchor: {fileID: 0}
  m_LightProbeVolumeOverride: {fileID: 0}
  m_ScaleInLightmap: 1
  m_ReceiveGI: 1
  m_PreserveUVs: 0
  m_IgnoreNormalsForChartDetection: 0
  m_ImportantGI: 0
  m_StitchLightmapSeams: 1
  m_SelectedEditorRenderState: 3
  m_MinimumChartSize: 4
  m_AutoUVMaxDistance: 0.5
  m_AutoUVMaxAngle: 89
  m_LightmapParameters: {fileID: 0}
  m_SortingLayerID: 0
  m_SortingLayer: 0
  m_SortingOrder: 0
--- !u!33 &106741668
MeshFilter:
  m_ObjectHideFlags: 0
  m_CorrespondingSourceObject: {fileID: 0}
  m_PrefabInstance: {fileID: 0}
  m_PrefabAsset: {fileID: 0}
  m_GameObject: {fileID: 106741665}
  m_Mesh: {fileID: 10209, guid: 0000000000000000e000000000000000, type: 0}
--- !u!4 &106741669
Transform:
  m_ObjectHideFlags: 0
  m_CorrespondingSourceObject: {fileID: 0}
  m_PrefabInstance: {fileID: 0}
  m_PrefabAsset: {fileID: 0}
  m_GameObject: {fileID: 106741665}
  m_LocalRotation: {x: -0, y: -0, z: -0, w: 1}
  m_LocalPosition: {x: 0, y: 0, z: 0}
  m_LocalScale: {x: 10, y: 1, z: 10}
  m_Children: []
  m_Father: {fileID: 0}
  m_RootOrder: 1
  m_LocalEulerAnglesHint: {x: 0, y: 0, z: 0}
--- !u!1001 &253958026
PrefabInstance:
  m_ObjectHideFlags: 0
  serializedVersion: 2
  m_Modification:
    m_TransformParent: {fileID: 0}
    m_Modifications:
    - target: {fileID: 598645290, guid: 8da9acec662a60b49bd3860db9a3bb5f, type: 3}
      propertyPath: m_AnchorMax.x
      value: 0
      objectReference: {fileID: 0}
    - target: {fileID: 598645290, guid: 8da9acec662a60b49bd3860db9a3bb5f, type: 3}
      propertyPath: m_AnchorMax.y
      value: 0
      objectReference: {fileID: 0}
    - target: {fileID: 85938914548337545, guid: 8da9acec662a60b49bd3860db9a3bb5f,
        type: 3}
      propertyPath: m_IsActive
      value: 0
      objectReference: {fileID: 0}
    - target: {fileID: 1205825312495138142, guid: 8da9acec662a60b49bd3860db9a3bb5f,
        type: 3}
      propertyPath: m_LocalPosition.x
      value: 0
      objectReference: {fileID: 0}
    - target: {fileID: 1205825312495138142, guid: 8da9acec662a60b49bd3860db9a3bb5f,
        type: 3}
      propertyPath: m_LocalPosition.y
      value: 0
      objectReference: {fileID: 0}
    - target: {fileID: 1205825312495138142, guid: 8da9acec662a60b49bd3860db9a3bb5f,
        type: 3}
      propertyPath: m_LocalPosition.z
      value: 0
      objectReference: {fileID: 0}
    - target: {fileID: 1205825312495138142, guid: 8da9acec662a60b49bd3860db9a3bb5f,
        type: 3}
      propertyPath: m_LocalRotation.x
      value: 0
      objectReference: {fileID: 0}
    - target: {fileID: 1205825312495138142, guid: 8da9acec662a60b49bd3860db9a3bb5f,
        type: 3}
      propertyPath: m_LocalRotation.y
      value: 0
      objectReference: {fileID: 0}
    - target: {fileID: 1205825312495138142, guid: 8da9acec662a60b49bd3860db9a3bb5f,
        type: 3}
      propertyPath: m_LocalRotation.z
      value: 0
      objectReference: {fileID: 0}
    - target: {fileID: 1205825312495138142, guid: 8da9acec662a60b49bd3860db9a3bb5f,
        type: 3}
      propertyPath: m_LocalRotation.w
      value: 1
      objectReference: {fileID: 0}
    - target: {fileID: 1205825312495138142, guid: 8da9acec662a60b49bd3860db9a3bb5f,
        type: 3}
      propertyPath: m_RootOrder
      value: 4
      objectReference: {fileID: 0}
    - target: {fileID: 1205825312495138142, guid: 8da9acec662a60b49bd3860db9a3bb5f,
        type: 3}
      propertyPath: m_LocalEulerAnglesHint.x
      value: 0
      objectReference: {fileID: 0}
    - target: {fileID: 1205825312495138142, guid: 8da9acec662a60b49bd3860db9a3bb5f,
        type: 3}
      propertyPath: m_LocalEulerAnglesHint.y
      value: 0
      objectReference: {fileID: 0}
    - target: {fileID: 1205825312495138142, guid: 8da9acec662a60b49bd3860db9a3bb5f,
        type: 3}
      propertyPath: m_LocalEulerAnglesHint.z
      value: 0
      objectReference: {fileID: 0}
    - target: {fileID: 1205825312495138142, guid: 8da9acec662a60b49bd3860db9a3bb5f,
        type: 3}
      propertyPath: m_AnchoredPosition.x
      value: 0
      objectReference: {fileID: 0}
    - target: {fileID: 1205825312495138142, guid: 8da9acec662a60b49bd3860db9a3bb5f,
        type: 3}
      propertyPath: m_AnchoredPosition.y
      value: 0
      objectReference: {fileID: 0}
    - target: {fileID: 1205825312495138142, guid: 8da9acec662a60b49bd3860db9a3bb5f,
        type: 3}
      propertyPath: m_SizeDelta.x
      value: 0
      objectReference: {fileID: 0}
    - target: {fileID: 1205825312495138142, guid: 8da9acec662a60b49bd3860db9a3bb5f,
        type: 3}
      propertyPath: m_SizeDelta.y
      value: 0
      objectReference: {fileID: 0}
    - target: {fileID: 1205825312495138142, guid: 8da9acec662a60b49bd3860db9a3bb5f,
        type: 3}
      propertyPath: m_AnchorMin.x
      value: 0
      objectReference: {fileID: 0}
    - target: {fileID: 1205825312495138142, guid: 8da9acec662a60b49bd3860db9a3bb5f,
        type: 3}
      propertyPath: m_AnchorMin.y
      value: 0
      objectReference: {fileID: 0}
    - target: {fileID: 1205825312495138142, guid: 8da9acec662a60b49bd3860db9a3bb5f,
        type: 3}
      propertyPath: m_AnchorMax.x
      value: 0
      objectReference: {fileID: 0}
    - target: {fileID: 1205825312495138142, guid: 8da9acec662a60b49bd3860db9a3bb5f,
        type: 3}
      propertyPath: m_AnchorMax.y
      value: 0
      objectReference: {fileID: 0}
    - target: {fileID: 1205825312495138142, guid: 8da9acec662a60b49bd3860db9a3bb5f,
        type: 3}
      propertyPath: m_Pivot.x
      value: 0
      objectReference: {fileID: 0}
    - target: {fileID: 1205825312495138142, guid: 8da9acec662a60b49bd3860db9a3bb5f,
        type: 3}
      propertyPath: m_Pivot.y
      value: 0
      objectReference: {fileID: 0}
    - target: {fileID: 1460617072866644762, guid: 8da9acec662a60b49bd3860db9a3bb5f,
        type: 3}
      propertyPath: m_IsActive
      value: 0
      objectReference: {fileID: 0}
    - target: {fileID: 5762876036917374298, guid: 8da9acec662a60b49bd3860db9a3bb5f,
        type: 3}
      propertyPath: m_Name
      value: GUICanvas
      objectReference: {fileID: 0}
    m_RemovedComponents: []
  m_SourcePrefab: {fileID: 100100000, guid: 8da9acec662a60b49bd3860db9a3bb5f, type: 3}
--- !u!1 &253958027 stripped
GameObject:
  m_CorrespondingSourceObject: {fileID: 2576463761690662604, guid: 8da9acec662a60b49bd3860db9a3bb5f,
    type: 3}
  m_PrefabInstance: {fileID: 253958026}
  m_PrefabAsset: {fileID: 0}
--- !u!1 &253958028 stripped
GameObject:
  m_CorrespondingSourceObject: {fileID: 451442738981927373, guid: 8da9acec662a60b49bd3860db9a3bb5f,
    type: 3}
  m_PrefabInstance: {fileID: 253958026}
  m_PrefabAsset: {fileID: 0}
--- !u!1 &253958030 stripped
GameObject:
  m_CorrespondingSourceObject: {fileID: 6989817133919878182, guid: 8da9acec662a60b49bd3860db9a3bb5f,
    type: 3}
  m_PrefabInstance: {fileID: 253958026}
  m_PrefabAsset: {fileID: 0}
--- !u!1 &253958031 stripped
GameObject:
  m_CorrespondingSourceObject: {fileID: 85938914548337545, guid: 8da9acec662a60b49bd3860db9a3bb5f,
    type: 3}
  m_PrefabInstance: {fileID: 253958026}
  m_PrefabAsset: {fileID: 0}
--- !u!114 &580258158 stripped
MonoBehaviour:
  m_CorrespondingSourceObject: {fileID: 3913153428768434765, guid: 8da9acec662a60b49bd3860db9a3bb5f,
    type: 3}
  m_PrefabInstance: {fileID: 253958026}
  m_PrefabAsset: {fileID: 0}
  m_GameObject: {fileID: 0}
  m_Enabled: 1
  m_EditorHideFlags: 0
  m_Script: {fileID: 11500000, guid: 5f7201a12d95ffc409449d95f23cf332, type: 3}
  m_Name: 
  m_EditorClassIdentifier: 
--- !u!1 &654874243
GameObject:
  m_ObjectHideFlags: 0
  m_CorrespondingSourceObject: {fileID: 0}
  m_PrefabInstance: {fileID: 0}
  m_PrefabAsset: {fileID: 0}
  serializedVersion: 6
  m_Component:
  - component: {fileID: 654874245}
  - component: {fileID: 654874244}
  m_Layer: 0
  m_Name: Directional Light
  m_TagString: Untagged
  m_Icon: {fileID: 0}
  m_NavMeshLayer: 0
  m_StaticEditorFlags: 0
  m_IsActive: 1
--- !u!108 &654874244
Light:
  m_ObjectHideFlags: 0
  m_CorrespondingSourceObject: {fileID: 0}
  m_PrefabInstance: {fileID: 0}
  m_PrefabAsset: {fileID: 0}
  m_GameObject: {fileID: 654874243}
  m_Enabled: 1
  serializedVersion: 10
  m_Type: 1
  m_Shape: 0
  m_Color: {r: 1, g: 0.95686275, b: 0.8392157, a: 1}
  m_Intensity: 1
  m_Range: 10
  m_SpotAngle: 30
  m_InnerSpotAngle: 21.80208
  m_CookieSize: 10
  m_Shadows:
    m_Type: 2
    m_Resolution: -1
    m_CustomResolution: -1
    m_Strength: 1
    m_Bias: 0.05
    m_NormalBias: 0.4
    m_NearPlane: 0.2
    m_CullingMatrixOverride:
      e00: 1
      e01: 0
      e02: 0
      e03: 0
      e10: 0
      e11: 1
      e12: 0
      e13: 0
      e20: 0
      e21: 0
      e22: 1
      e23: 0
      e30: 0
      e31: 0
      e32: 0
      e33: 1
    m_UseCullingMatrixOverride: 0
  m_Cookie: {fileID: 0}
  m_DrawHalo: 0
  m_Flare: {fileID: 0}
  m_RenderMode: 0
  m_CullingMask:
    serializedVersion: 2
    m_Bits: 4294967295
  m_RenderingLayerMask: 1
  m_Lightmapping: 4
  m_LightShadowCasterMode: 0
  m_AreaSize: {x: 1, y: 1}
  m_BounceIntensity: 1
  m_ColorTemperature: 6570
  m_UseColorTemperature: 0
  m_BoundingSphereOverride: {x: 0, y: 0, z: 0, w: 0}
  m_UseBoundingSphereOverride: 0
  m_ShadowRadius: 0
  m_ShadowAngle: 0
--- !u!4 &654874245
Transform:
  m_ObjectHideFlags: 0
  m_CorrespondingSourceObject: {fileID: 0}
  m_PrefabInstance: {fileID: 0}
  m_PrefabAsset: {fileID: 0}
  m_GameObject: {fileID: 654874243}
  m_LocalRotation: {x: 0.37672287, y: -0.4107503, z: 0.19153596, w: 0.807885}
  m_LocalPosition: {x: 0, y: 3, z: 0}
  m_LocalScale: {x: 1, y: 1, z: 1}
  m_Children: []
  m_Father: {fileID: 0}
  m_RootOrder: 2
  m_LocalEulerAnglesHint: {x: 50, y: -53.9, z: 0}
--- !u!1 &1223645267
GameObject:
  m_ObjectHideFlags: 0
  m_CorrespondingSourceObject: {fileID: 0}
  m_PrefabInstance: {fileID: 0}
  m_PrefabAsset: {fileID: 0}
  serializedVersion: 6
  m_Component:
  - component: {fileID: 1223645270}
  - component: {fileID: 1223645269}
  - component: {fileID: 1223645268}
  m_Layer: 0
  m_Name: Main Camera
  m_TagString: MainCamera
  m_Icon: {fileID: 0}
  m_NavMeshLayer: 0
  m_StaticEditorFlags: 0
  m_IsActive: 1
--- !u!81 &1223645268
AudioListener:
  m_ObjectHideFlags: 0
  m_CorrespondingSourceObject: {fileID: 0}
  m_PrefabInstance: {fileID: 0}
  m_PrefabAsset: {fileID: 0}
  m_GameObject: {fileID: 1223645267}
  m_Enabled: 1
--- !u!20 &1223645269
Camera:
  m_ObjectHideFlags: 0
  m_CorrespondingSourceObject: {fileID: 0}
  m_PrefabInstance: {fileID: 0}
  m_PrefabAsset: {fileID: 0}
  m_GameObject: {fileID: 1223645267}
  m_Enabled: 1
  serializedVersion: 2
  m_ClearFlags: 1
  m_BackGroundColor: {r: 0.19215687, g: 0.3019608, b: 0.4745098, a: 0}
  m_projectionMatrixMode: 1
  m_GateFitMode: 2
  m_FOVAxisMode: 0
  m_SensorSize: {x: 36, y: 24}
  m_LensShift: {x: 0, y: 0}
  m_FocalLength: 50
  m_NormalizedViewPortRect:
    serializedVersion: 2
    x: 0
    y: 0
    width: 1
    height: 1
  near clip plane: 0.3
  far clip plane: 1000
  field of view: 60
  orthographic: 0
  orthographic size: 5
  m_Depth: -1
  m_CullingMask:
    serializedVersion: 2
    m_Bits: 4294967295
  m_RenderingPath: -1
  m_TargetTexture: {fileID: 0}
  m_TargetDisplay: 0
  m_TargetEye: 3
  m_HDR: 1
  m_AllowMSAA: 1
  m_AllowDynamicResolution: 0
  m_ForceIntoRT: 0
  m_OcclusionCulling: 1
  m_StereoConvergence: 10
  m_StereoSeparation: 0.022
--- !u!4 &1223645270
Transform:
  m_ObjectHideFlags: 0
  m_CorrespondingSourceObject: {fileID: 0}
  m_PrefabInstance: {fileID: 0}
  m_PrefabAsset: {fileID: 0}
  m_GameObject: {fileID: 1223645267}
  m_LocalRotation: {x: 0.15038373, y: -0.4924039, z: 0.08682408, w: 0.85286856}
  m_LocalPosition: {x: 3.71, y: 3.25, z: -2.03}
  m_LocalScale: {x: 1, y: 1, z: 1}
  m_Children: []
  m_Father: {fileID: 0}
  m_RootOrder: 0
  m_LocalEulerAnglesHint: {x: 20, y: -60, z: 0}
--- !u!1 &1272004952 stripped
GameObject:
  m_CorrespondingSourceObject: {fileID: 4171530129056964383, guid: 8da9acec662a60b49bd3860db9a3bb5f,
    type: 3}
  m_PrefabInstance: {fileID: 253958026}
  m_PrefabAsset: {fileID: 0}
--- !u!1 &1710247289
GameObject:
  m_ObjectHideFlags: 0
  m_CorrespondingSourceObject: {fileID: 0}
  m_PrefabInstance: {fileID: 0}
  m_PrefabAsset: {fileID: 0}
  serializedVersion: 6
  m_Component:
  - component: {fileID: 1710247292}
  - component: {fileID: 1710247291}
  - component: {fileID: 1710247290}
  m_Layer: 0
  m_Name: EventSystem
  m_TagString: Untagged
  m_Icon: {fileID: 0}
  m_NavMeshLayer: 0
  m_StaticEditorFlags: 0
  m_IsActive: 1
--- !u!114 &1710247290
MonoBehaviour:
  m_ObjectHideFlags: 0
  m_CorrespondingSourceObject: {fileID: 0}
  m_PrefabInstance: {fileID: 0}
  m_PrefabAsset: {fileID: 0}
  m_GameObject: {fileID: 1710247289}
  m_Enabled: 1
  m_EditorHideFlags: 0
  m_Script: {fileID: 11500000, guid: 4f231c4fb786f3946a6b90b886c48677, type: 3}
  m_Name: 
  m_EditorClassIdentifier: 
  m_HorizontalAxis: Horizontal
  m_VerticalAxis: Vertical
  m_SubmitButton: Submit
  m_CancelButton: Cancel
  m_InputActionsPerSecond: 10
  m_RepeatDelay: 0.5
  m_ForceModuleActive: 0
--- !u!114 &1710247291
MonoBehaviour:
  m_ObjectHideFlags: 0
  m_CorrespondingSourceObject: {fileID: 0}
  m_PrefabInstance: {fileID: 0}
  m_PrefabAsset: {fileID: 0}
  m_GameObject: {fileID: 1710247289}
  m_Enabled: 1
  m_EditorHideFlags: 0
  m_Script: {fileID: 11500000, guid: 76c392e42b5098c458856cdf6ecaaaa1, type: 3}
  m_Name: 
  m_EditorClassIdentifier: 
  m_FirstSelected: {fileID: 0}
  m_sendNavigationEvents: 1
  m_DragThreshold: 10
--- !u!4 &1710247292
Transform:
  m_ObjectHideFlags: 0
  m_CorrespondingSourceObject: {fileID: 0}
  m_PrefabInstance: {fileID: 0}
  m_PrefabAsset: {fileID: 0}
  m_GameObject: {fileID: 1710247289}
  m_LocalRotation: {x: 0, y: 0, z: 0, w: 1}
  m_LocalPosition: {x: 0, y: 0, z: 0}
  m_LocalScale: {x: 1, y: 1, z: 1}
  m_Children: []
  m_Father: {fileID: 0}
  m_RootOrder: 5
  m_LocalEulerAnglesHint: {x: 0, y: 0, z: 0}
--- !u!114 &1787029180 stripped
MonoBehaviour:
  m_CorrespondingSourceObject: {fileID: 2346017982536311434, guid: 8da9acec662a60b49bd3860db9a3bb5f,
    type: 3}
  m_PrefabInstance: {fileID: 253958026}
  m_PrefabAsset: {fileID: 0}
  m_GameObject: {fileID: 0}
  m_Enabled: 1
  m_EditorHideFlags: 0
  m_Script: {fileID: 11500000, guid: 5f7201a12d95ffc409449d95f23cf332, type: 3}
  m_Name: 
  m_EditorClassIdentifier: 
--- !u!1001 &1980336231
PrefabInstance:
  m_ObjectHideFlags: 0
  serializedVersion: 2
  m_Modification:
    m_TransformParent: {fileID: 0}
    m_Modifications:
    - target: {fileID: 4891040980501671740, guid: d598f68d3e1bef9409660c793a0ddf94,
        type: 3}
      propertyPath: mLevels.Array.size
      value: 5
      objectReference: {fileID: 0}
    - target: {fileID: 4891040980501671740, guid: d598f68d3e1bef9409660c793a0ddf94,
        type: 3}
      propertyPath: mPlayerNameList.Array.size
      value: 10
      objectReference: {fileID: 0}
    - target: {fileID: 4891040980501671740, guid: d598f68d3e1bef9409660c793a0ddf94,
        type: 3}
      propertyPath: mPlayerName
      value: 
      objectReference: {fileID: 2069640860}
    - target: {fileID: 4891040980501671740, guid: d598f68d3e1bef9409660c793a0ddf94,
        type: 3}
      propertyPath: mTurnResult
      value: 
      objectReference: {fileID: 1787029180}
    - target: {fileID: 4891040980501671740, guid: d598f68d3e1bef9409660c793a0ddf94,
        type: 3}
      propertyPath: mTimerText
      value: 
      objectReference: {fileID: 580258158}
    - target: {fileID: 4891040980501671740, guid: d598f68d3e1bef9409660c793a0ddf94,
        type: 3}
      propertyPath: mLevels.Array.data[0]
      value: 
      objectReference: {fileID: 7973995599344827171, guid: b1baa3c96cfa41043be1bce932c02eb4,
        type: 3}
    - target: {fileID: 4891040980501671740, guid: d598f68d3e1bef9409660c793a0ddf94,
        type: 3}
      propertyPath: mLevels.Array.data[1]
      value: 
      objectReference: {fileID: 7973995599344827171, guid: d1cd5004ac2c04e4e849d41d9bf02b83,
        type: 3}
    - target: {fileID: 4891040980501671740, guid: d598f68d3e1bef9409660c793a0ddf94,
        type: 3}
      propertyPath: mCurrentLevel
      value: -1
      objectReference: {fileID: 0}
    - target: {fileID: 4891040980501671740, guid: d598f68d3e1bef9409660c793a0ddf94,
        type: 3}
      propertyPath: mLevels.Array.data[2]
      value: 
      objectReference: {fileID: 7973995599344827171, guid: 672e09d703bc5814e9ae32f6d843bb71,
        type: 3}
    - target: {fileID: 4891040980501671740, guid: d598f68d3e1bef9409660c793a0ddf94,
        type: 3}
      propertyPath: mLevels.Array.data[3]
      value: 
      objectReference: {fileID: 7973995599344827171, guid: 35ab07a7e854bc04ba2ffe94915c2267,
        type: 3}
    - target: {fileID: 4891040980501671740, guid: d598f68d3e1bef9409660c793a0ddf94,
        type: 3}
      propertyPath: mLevels.Array.data[4]
      value: 
      objectReference: {fileID: 7973995599344827171, guid: eb2c42146ba4bde468e73fd21629fff4,
        type: 3}
    - target: {fileID: 4891040980501671740, guid: d598f68d3e1bef9409660c793a0ddf94,
        type: 3}
      propertyPath: mPanel
      value: 
      objectReference: {fileID: 1272004952}
    - target: {fileID: 4891040980501671740, guid: d598f68d3e1bef9409660c793a0ddf94,
        type: 3}
      propertyPath: mUpPanelPoint
      value: 
      objectReference: {fileID: 253958028}
    - target: {fileID: 4891040980501671740, guid: d598f68d3e1bef9409660c793a0ddf94,
        type: 3}
      propertyPath: mDownPanelPoint
      value: 
      objectReference: {fileID: 253958027}
    - target: {fileID: 4891040980501671740, guid: d598f68d3e1bef9409660c793a0ddf94,
        type: 3}
      propertyPath: mPlayerNameList.Array.data[0]
      value: Bob
      objectReference: {fileID: 0}
    - target: {fileID: 4891040980501671740, guid: d598f68d3e1bef9409660c793a0ddf94,
        type: 3}
      propertyPath: mPlayerNameList.Array.data[1]
      value: Ada
      objectReference: {fileID: 0}
    - target: {fileID: 4891040980501671740, guid: d598f68d3e1bef9409660c793a0ddf94,
        type: 3}
      propertyPath: mPlayerNameList.Array.data[2]
      value: Fred
      objectReference: {fileID: 0}
    - target: {fileID: 4891040980501671740, guid: d598f68d3e1bef9409660c793a0ddf94,
        type: 3}
      propertyPath: mPlayerNameList.Array.data[3]
      value: Jasmine
      objectReference: {fileID: 0}
    - target: {fileID: 4891040980501671740, guid: d598f68d3e1bef9409660c793a0ddf94,
        type: 3}
      propertyPath: mPlayerNameList.Array.data[4]
      value: Georges
      objectReference: {fileID: 0}
    - target: {fileID: 4891040980501671740, guid: d598f68d3e1bef9409660c793a0ddf94,
        type: 3}
      propertyPath: mPlayerNameList.Array.data[5]
      value: Jeanne
      objectReference: {fileID: 0}
    - target: {fileID: 4891040980501671740, guid: d598f68d3e1bef9409660c793a0ddf94,
        type: 3}
      propertyPath: mPlayerNameList.Array.data[6]
      value: Lucas
      objectReference: {fileID: 0}
    - target: {fileID: 4891040980501671740, guid: d598f68d3e1bef9409660c793a0ddf94,
        type: 3}
      propertyPath: mPlayerNameList.Array.data[7]
      value: Aurore
      objectReference: {fileID: 0}
    - target: {fileID: 4891040980501671740, guid: d598f68d3e1bef9409660c793a0ddf94,
        type: 3}
      propertyPath: mPlayerNameList.Array.data[8]
      value: Emmanuel
      objectReference: {fileID: 0}
    - target: {fileID: 4891040980501671740, guid: d598f68d3e1bef9409660c793a0ddf94,
        type: 3}
      propertyPath: mPlayerNameList.Array.data[9]
      value: Olivia
      objectReference: {fileID: 0}
    - target: {fileID: 4891040980501671740, guid: d598f68d3e1bef9409660c793a0ddf94,
        type: 3}
      propertyPath: mWinPanel
      value: 
      objectReference: {fileID: 253958031}
    - target: {fileID: 4891040980501671740, guid: d598f68d3e1bef9409660c793a0ddf94,
        type: 3}
      propertyPath: mFailPanel
      value: 
      objectReference: {fileID: 253958030}
    - target: {fileID: 6602446407512798292, guid: d598f68d3e1bef9409660c793a0ddf94,
        type: 3}
      propertyPath: m_LocalPosition.x
      value: 0.32314187
      objectReference: {fileID: 0}
    - target: {fileID: 6602446407512798292, guid: d598f68d3e1bef9409660c793a0ddf94,
        type: 3}
      propertyPath: m_LocalPosition.y
      value: 1.0362478
      objectReference: {fileID: 0}
    - target: {fileID: 6602446407512798292, guid: d598f68d3e1bef9409660c793a0ddf94,
        type: 3}
      propertyPath: m_LocalPosition.z
      value: -2.3710685
      objectReference: {fileID: 0}
    - target: {fileID: 6602446407512798292, guid: d598f68d3e1bef9409660c793a0ddf94,
        type: 3}
      propertyPath: m_LocalRotation.x
      value: 0
      objectReference: {fileID: 0}
    - target: {fileID: 6602446407512798292, guid: d598f68d3e1bef9409660c793a0ddf94,
        type: 3}
      propertyPath: m_LocalRotation.y
      value: 0
      objectReference: {fileID: 0}
    - target: {fileID: 6602446407512798292, guid: d598f68d3e1bef9409660c793a0ddf94,
        type: 3}
      propertyPath: m_LocalRotation.z
      value: 0
      objectReference: {fileID: 0}
    - target: {fileID: 6602446407512798292, guid: d598f68d3e1bef9409660c793a0ddf94,
        type: 3}
      propertyPath: m_LocalRotation.w
      value: 1
      objectReference: {fileID: 0}
    - target: {fileID: 6602446407512798292, guid: d598f68d3e1bef9409660c793a0ddf94,
        type: 3}
      propertyPath: m_RootOrder
      value: 3
      objectReference: {fileID: 0}
    - target: {fileID: 6602446407512798292, guid: d598f68d3e1bef9409660c793a0ddf94,
        type: 3}
      propertyPath: m_LocalEulerAnglesHint.x
      value: 0
      objectReference: {fileID: 0}
    - target: {fileID: 6602446407512798292, guid: d598f68d3e1bef9409660c793a0ddf94,
        type: 3}
      propertyPath: m_LocalEulerAnglesHint.y
      value: 0
      objectReference: {fileID: 0}
    - target: {fileID: 6602446407512798292, guid: d598f68d3e1bef9409660c793a0ddf94,
        type: 3}
      propertyPath: m_LocalEulerAnglesHint.z
      value: 0
      objectReference: {fileID: 0}
    - target: {fileID: 8155547124986207734, guid: d598f68d3e1bef9409660c793a0ddf94,
        type: 3}
      propertyPath: m_Name
      value: GameManager
      objectReference: {fileID: 0}
    - target: {fileID: 8155547124986207734, guid: d598f68d3e1bef9409660c793a0ddf94,
        type: 3}
      propertyPath: m_TagString
      value: GameManager
      objectReference: {fileID: 0}
    m_RemovedComponents: []
  m_SourcePrefab: {fileID: 100100000, guid: d598f68d3e1bef9409660c793a0ddf94, type: 3}
--- !u!114 &2069640860 stripped
MonoBehaviour:
  m_CorrespondingSourceObject: {fileID: 6471635273676553190, guid: 8da9acec662a60b49bd3860db9a3bb5f,
    type: 3}
  m_PrefabInstance: {fileID: 253958026}
  m_PrefabAsset: {fileID: 0}
  m_GameObject: {fileID: 0}
  m_Enabled: 1
  m_EditorHideFlags: 0
  m_Script: {fileID: 11500000, guid: 5f7201a12d95ffc409449d95f23cf332, type: 3}
  m_Name: 
  m_EditorClassIdentifier: 
